{
    "KPlugin": {
        "Description": "A panel for showing worksheet structure",
        "Description[ca@valencia]": "Un quadro per a mostrar l'estructura del full de treball",
        "Description[ca]": "Un plafó per a mostrar l'estructura del full de treball",
        "Description[de]": "Eine Leiste zur Anzeige der Arbeitsblattstruktur",
        "Description[el]": "Ένας πίνακας που δείχνει τη δομή του φύλλου εργασίας",
        "Description[en_GB]": "A panel for showing worksheet structure",
        "Description[es]": "Un panel para mostrar la estructura de la hoja de trabajo",
        "Description[fi]": "Paneeli työkirjan rakenteen näyttämiseksi",
        "Description[fr]": "Un panneau pour l'affichage de la structure de la feuille de travail",
        "Description[ia]": "Un pannello per monstrar structura de folio de travalio",
        "Description[it]": "Un pannello per mostrare la struttura dei fogli di lavoro",
        "Description[ka]": "ცხრილის სტრუქტურის მაჩვენებელი პანელი",
        "Description[ko]": "워크시트 구조를 표시하는 패널",
        "Description[nl]": "Een paneel waarin de structuur van het werkblad",
        "Description[pl]": "Okno do wyświetlania struktury arkusza pracy",
        "Description[pt]": "Um painel para mostrar a estrutura da folha de trabalho",
        "Description[pt_BR]": "Um painel para mostrar a estrutura da planilha",
        "Description[ru]": "Панель для просмотра структуры документа",
        "Description[sk]": "Panel na zobrazenie štruktúrý pracovného listu",
        "Description[sl]": "Plošča za prikaz strukture delovnega lista",
        "Description[sv]": "En panel för att visa arbetsbladsstruktur",
        "Description[ta]": "பணித்தாளின் வடிவமைப்பைக் காட்டும் பலகை",
        "Description[tr]": "Çalışma sayfası yapısını gösteren bir panel",
        "Description[uk]": "Панель для показу структури робочого аркуша",
        "Description[x-test]": "xxA panel for showing worksheet structurexx",
        "Description[zh_CN]": "显示工作表结构的面板",
        "Icon": "",
        "Id": "TOC",
        "License": "GPL",
        "Name": "Table Of Contents",
        "Name[ar]": "جدول المحتويات",
        "Name[ca@valencia]": "Taula de continguts",
        "Name[ca]": "Taula de continguts",
        "Name[cs]": "Obsah",
        "Name[de]": "Inhaltsverzeichnis",
        "Name[el]": "Πίνακας περιεχομένων",
        "Name[en_GB]": "Table Of Contents",
        "Name[es]": "Tabla de contenido",
        "Name[fi]": "Sisällysluettelo",
        "Name[fr]": "Table des matières",
        "Name[ia]": "Indice general (Tabula de contentos)",
        "Name[it]": "Tavola dei contenuti",
        "Name[ka]": "Სარჩევი",
        "Name[ko]": "목차",
        "Name[nl]": "Inhoudstabel",
        "Name[pl]": "Spis treści",
        "Name[pt]": "Índice Analítico",
        "Name[pt_BR]": "Sumário",
        "Name[ru]": "Содержание",
        "Name[sk]": "Obsah",
        "Name[sl]": "Kazalo vsebine",
        "Name[sv]": "Innehållsförteckning",
        "Name[ta]": "பொருளடக்கம்",
        "Name[tr]": "İçindekiler",
        "Name[uk]": "Зміст",
        "Name[x-test]": "xxTable Of Contentsxx",
        "Name[zh_CN]": "目录"
    },
    "RequiredExtensions": ""
}
