{
    "KPlugin": {
        "Description": "A panel to display help",
        "Description[ca@valencia]": "Un quadro per a mostrar les pàgines d'ajuda",
        "Description[ca]": "Un plafó per a mostrar les pàgines d'ajuda",
        "Description[cs]": "Panel pro zobrazení nápovědy",
        "Description[de]": "Eine Kontrollleiste zur Anzeige der Hilfe",
        "Description[el]": "Πίνακας για εμφάνιση βοήθειας",
        "Description[en_GB]": "A panel to display help",
        "Description[es]": "Un panel para mostrar ayuda",
        "Description[et]": "Abi näitav paneel",
        "Description[fi]": "Paneeli ohjeiden näyttämiseen",
        "Description[fr]": "Un panneau pour afficher l'aide",
        "Description[gl]": "Un panel que mostra axuda",
        "Description[ia]": "Un pannello per monstrar adjuta",
        "Description[it]": "Un pannello per visualizzare l'aiuto",
        "Description[ka]": "დახმარების საჩვენებელი პანელი",
        "Description[ko]": "도움말을 표시하는 패널",
        "Description[nl]": "Een paneel om help te tonen",
        "Description[nn]": "Eit panel som viser hjelp",
        "Description[pl]": "Okno do wyświetlania pomocy",
        "Description[pt]": "Um painel para mostrar alguma ajuda",
        "Description[pt_BR]": "Um painel para apresentar ajuda",
        "Description[ru]": "Панель для просмотра справки",
        "Description[sk]": "Panel na zobrazenie pomoci",
        "Description[sl]": "Pult za prikaz pomoči",
        "Description[sv]": "En panel för att visa hjälp",
        "Description[ta]": "உதவியைக் காட்டும் பலகை",
        "Description[tr]": "Yardımı görüntülemek üzere bir panel",
        "Description[uk]": "Панель для показу довідки",
        "Description[x-test]": "xxA panel to display helpxx",
        "Description[zh_CN]": "显示帮助的面板",
        "Description[zh_TW]": "顯示說明的面板",
        "Icon": "",
        "Id": "HelpPanel",
        "License": "GPL",
        "Name": "Help",
        "Name[ar]": "مساعدة",
        "Name[ca@valencia]": "Ajuda",
        "Name[ca]": "Ajuda",
        "Name[cs]": "Nápověda",
        "Name[da]": "Help",
        "Name[de]": "Hilfe",
        "Name[el]": "Βοήθεια",
        "Name[en_GB]": "Help",
        "Name[es]": "Ayuda",
        "Name[et]": "Abi",
        "Name[fi]": "Ohjeet",
        "Name[fr]": "Aide",
        "Name[gl]": "Axuda",
        "Name[ia]": "Adjuta",
        "Name[it]": "Aiuto",
        "Name[ka]": "დახმარება",
        "Name[ko]": "도움말",
        "Name[nl]": "Help",
        "Name[nn]": "Hjelp",
        "Name[pl]": "Pomoc",
        "Name[pt]": "Ajuda",
        "Name[pt_BR]": "Ajuda",
        "Name[ru]": "Справка",
        "Name[sk]": "Pomocník",
        "Name[sl]": "Pomoč",
        "Name[sv]": "Hjälp",
        "Name[ta]": "உதவி",
        "Name[tr]": "Yardım",
        "Name[uk]": "Довідка",
        "Name[x-test]": "xxHelpxx",
        "Name[zh_CN]": "帮助",
        "Name[zh_TW]": "求助"
    },
    "RequiredExtensions": ""
}
