{
    "KPlugin": {
        "Description": "Backend for the Sage Mathematics Software",
        "Description[ca@valencia]": "Dorsal per al programari matemàtic Sage",
        "Description[ca]": "Dorsal per al programari matemàtic Sage",
        "Description[cs]": "Podpůrná vrstva pro matematický software Sage",
        "Description[de]": "„Sage Mathematics Software“-Modul für Cantor",
        "Description[el]": "Σύστημα υποστήριξης για το μαθηματικό λογισμικό Sage",
        "Description[en_GB]": "Backend for the Sage Mathematics Software",
        "Description[es]": "Motor para el software matemático Sage",
        "Description[et]": "Sage matemaatikatarkvara taustaprogramm",
        "Description[fi]": "Sage-matematiikkaohjelmiston taustajärjestelmä",
        "Description[fr]": "Moteur pour le logiciel de mathématiques « Sage »",
        "Description[gl]": "Infraestrutura do Software de matemáticas Sage",
        "Description[ia]": "Retroadministration per le Sftware mathematic Sage",
        "Description[it]": "Motore per il software matematico Sage",
        "Description[ka]": "Sage Mathematics Software-ის უკანაბოლო",
        "Description[ko]": "Sage 수학 소프트웨어 백엔드",
        "Description[nl]": "Backend voor de Sage wiskundige software",
        "Description[nn]": "Motor for matematikkprogramvara Sage",
        "Description[pl]": "Silnik dla programu matematycznego Sage",
        "Description[pt]": "Infra-Estrutura da Aplicação Matemática Sage",
        "Description[pt_BR]": "Infraestrutura para o Sage Mathematics Software",
        "Description[ru]": "Модуль поддержки Sage",
        "Description[sk]": "Backend pre matematický softvér Sage",
        "Description[sl]": "Zaledje za matematično programsko opremo Sage",
        "Description[sv]": "Bakgrundsprogram för matematikprogramvaran Sage",
        "Description[tr]": "Sage Matematik Yazılımı için arka uç",
        "Description[uk]": "Модуль математичного програмного забезпечення Sage",
        "Description[x-test]": "xxBackend for the Sage Mathematics Softwarexx",
        "Description[zh_CN]": "Sage 数学软件的后端",
        "Description[zh_TW]": "Sage 數學系統的後端介面",
        "Icon": "sagebackend",
        "Id": "Sage",
        "License": "GPL",
        "Name": "Sage",
        "Name[ar]": "ساج",
        "Name[ca@valencia]": "Sage",
        "Name[ca]": "Sage",
        "Name[cs]": "Sage",
        "Name[da]": "Sage",
        "Name[de]": "Sage",
        "Name[el]": "Sage",
        "Name[en_GB]": "Sage",
        "Name[es]": "Sage",
        "Name[et]": "Sage",
        "Name[fi]": "Sage",
        "Name[fr]": "Sage",
        "Name[gl]": "Sage",
        "Name[ia]": "Sage",
        "Name[it]": "Sage",
        "Name[ka]": "Sage",
        "Name[ko]": "Sage",
        "Name[nl]": "Sage",
        "Name[nn]": "Sage",
        "Name[pl]": "Sage",
        "Name[pt]": "Sage",
        "Name[pt_BR]": "Sage",
        "Name[ru]": "Sage",
        "Name[sk]": "Sage",
        "Name[sl]": "Sage",
        "Name[sv]": "Sage",
        "Name[tr]": "Sage",
        "Name[uk]": "Sage",
        "Name[x-test]": "xxSagexx",
        "Name[zh_CN]": "Sage",
        "Name[zh_TW]": "Sage",
        "Website": "https://www.sagemath.org/"
    }
}
